\BOOKMARK [1][]{section*.1}{\376\377\000V\000z\000d\000e\000l\000a\000n\000i\000e}{}% 1
\BOOKMARK [1][]{section*.2}{\376\377\000C\000e\000r\000t\000i\000f\000i\000k\000\341\000t\000y}{}% 2
\BOOKMARK [1][]{section*.3}{\376\377\000P\000r\000a\000c\000o\000v\000n\000\351\000\040\000s\000k\000\372\000s\000e\000n\000o\000s\000t\000i}{}% 3
\BOOKMARK [1][]{section*.4}{\376\377\000P\000r\000o\000j\000e\000k\000t\000y}{}% 4
\BOOKMARK [1][]{section*.5}{\376\377\000P\000o\001\015\000\355\000t\000a\001\015\000o\000v\000\351\000\040\000s\000k\000\372\000s\000e\000n\000o\000s\000t\000i}{}% 5
\BOOKMARK [1][]{section*.6}{\376\377\000P\000r\000o\000g\000r\000a\000m\000o\000v\000a\000c\000i\000e\000\040\000s\000k\000\372\000s\000e\000n\000o\000s\000t\000i}{}% 6
\BOOKMARK [1][]{section*.7}{\376\377\000I\000n\000\351\000\040\000s\000k\000\372\000s\000e\000n\000o\000s\000t\000i}{}% 7
\BOOKMARK [1][]{section*.8}{\376\377\000K\000o\000m\000u\000n\000i\000k\000a\001\015\000n\000\351\000\040\000s\000k\000\372\000s\000e\000n\000o\000s\000t\000i}{}% 8
\BOOKMARK [1][]{section*.9}{\376\377\000J\000a\000z\000y\000k\000y}{}% 9
\BOOKMARK [1][]{section*.10}{\376\377\000Z\000\341\000u\000j\000m\000y}{}% 10
