\relax 
\catcode `^\active 
\catcode `"\active 
\catcode `'\active 
\catcode `-\active 
\bibstyle{unsrt}
\providecommand\HyperFirstAtBeginDocument{\AtBeginDocument}
\HyperFirstAtBeginDocument{\ifx\hyper@anchor\@undefined
\global\let\oldcontentsline\contentsline
\gdef\contentsline#1#2#3#4{\oldcontentsline{#1}{#2}{#3}}
\global\let\oldnewlabel\newlabel
\gdef\newlabel#1#2{\newlabelxx{#1}#2}
\gdef\newlabelxx#1#2#3#4#5#6{\oldnewlabel{#1}{{#2}{#3}}}
\AtEndDocument{\ifx\hyper@anchor\@undefined
\let\contentsline\oldcontentsline
\let\newlabel\oldnewlabel
\fi}
\fi}
\global\let\hyper@last\relax 
\gdef\HyperFirstAtBeginDocument#1{#1}
\providecommand\HyField@AuxAddToFields[1]{}
\providecommand\HyField@AuxAddToCoFields[2]{}
\select@language{slovak}
\@writefile{toc}{\select@language{slovak}}
\@writefile{lof}{\select@language{slovak}}
\@writefile{lot}{\select@language{slovak}}
\@writefile{toc}{\contentsline {section}{Vzdelanie}{1}{section*.1}}
\@writefile{toc}{\contentsline {section}{Certifik\IeC {\'a}ty}{1}{section*.2}}
\@writefile{toc}{\contentsline {section}{Pracovn\IeC {\'e} sk\IeC {\'u}senosti}{1}{section*.3}}
\@writefile{toc}{\contentsline {section}{Projekty}{2}{section*.4}}
\@writefile{toc}{\contentsline {section}{Po\IeC {\v c}\IeC {\'\i }ta\IeC {\v c}ov\IeC {\'e} sk\IeC {\'u}senosti}{2}{section*.5}}
\@writefile{toc}{\contentsline {section}{Programovacie sk\IeC {\'u}senosti}{2}{section*.6}}
\@writefile{toc}{\contentsline {section}{In\IeC {\'e} sk\IeC {\'u}senosti}{2}{section*.7}}
\@writefile{toc}{\contentsline {section}{Komunika\IeC {\v c}n\IeC {\'e} sk\IeC {\'u}senosti}{2}{section*.8}}
\@writefile{toc}{\contentsline {section}{Jazyky}{3}{section*.9}}
\@writefile{toc}{\contentsline {section}{Z\IeC {\'a}ujmy}{3}{section*.10}}
\newlabel{lastpage}{{}{3}{}{section*.10}{}}
